Stand by me
6
{
  "tracks": {
    "href": "https://api.spotify.com/v1/search?query=Stand+by+me&type=track&offset=0&limit=1",
    "items": [
      {
        "album": {
          "album_type": "album",
          "artists": [
            {
              "external_urls": {
                "spotify": "https://open.spotify.com/artist/3plJVWt88EqjvtuB4ZDRV3"
              },
              "href": "https://api.spotify.com/v1/artists/3plJVWt88EqjvtuB4ZDRV3",
              "id": "3plJVWt88EqjvtuB4ZDRV3",
              "name": "Ben E. King",
              "type": "artist",
              "uri": "spotify:artist:3plJVWt88EqjvtuB4ZDRV3"
            }
          ],
          "available_markets": [
            "AD",
            "AE",
            "AR",
            "AT",
            "AU",
            "BE",
            "BG",
            "BH",
            "BO",
            "BR",
            "CA",
            "CH",
            "CL",
            "CO",
            "CR",
            "CY",
            "CZ",
            "DE",
            "DK",
            "DO",
            "DZ",
            "EC",
            "EE",
            "EG",
            "ES",
            "FI",
            "FR",
            "GB",
            "GR",
            "GT",
            "HK",
            "HN",
            "HU",
            "ID",
            "IE",
            "IL",
            "IS",
            "IT",
            "JO",
            "JP",
            "KW",
            "LB",
            "LT",
            "LU",
            "LV",
            "MA",
            "MC",
            "MT",
            "MX",
            "MY",
            "NI",
            "NL",
            "NO",
            "NZ",
            "OM",
            "PA",
            "PE",
            "PH",
            "PL",
            "PT",
            "PY",
            "QA",
            "RO",
            "SA",
            "SE",
            "SG",
            "SK",
            "SV",
            "TH",
            "TN",
            "TR",
            "TW",
            "US",
            "UY",
            "VN",
            "ZA"
          ],
          "external_urls": {
            "spotify": "https://open.spotify.com/album/18Fj7coTfyMi7mEPXIweN7"
          },
          "href": "https://api.spotify.com/v1/albums/18Fj7coTfyMi7mEPXIweN7",
          "id": "18Fj7coTfyMi7mEPXIweN7",
          "images": [
            {
              "height": 640,
              "url": "https://i.scdn.co/image/edc2885f307788617bc1152168c245933d7231f2",
              "width": 640
            },
            {
              "height": 300,
              "url": "https://i.scdn.co/image/135bb198dad5c469f1864544b7b9657b9e97bad2",
              "width": 300
            },
            {
              "height": 64,
              "url": "https://i.scdn.co/image/5be1c63ccf1bba6f7cdf6760f7b3471e244433a9",
              "width": 64
            }
          ],
          "name": "Don't Play That Song (Mono)",
          "release_date": "1962-08-20",
          "release_date_precision": "day",
          "total_tracks": 12,
          "type": "album",
          "uri": "spotify:album:18Fj7coTfyMi7mEPXIweN7"
        },
        "artists": [
          {
            "external_urls": {
              "spotify": "https://open.spotify.com/artist/3plJVWt88EqjvtuB4ZDRV3"
            },
            "href": "https://api.spotify.com/v1/artists/3plJVWt88EqjvtuB4ZDRV3",
            "id": "3plJVWt88EqjvtuB4ZDRV3",
            "name": "Ben E. King",
            "type": "artist",
            "uri": "spotify:artist:3plJVWt88EqjvtuB4ZDRV3"
          }
        ],
        "available_markets": [
          "AD",
          "AE",
          "AR",
          "AT",
          "AU",
          "BE",
          "BG",
          "BH",
          "BO",
          "BR",
          "CA",
          "CH",
          "CL",
          "CO",
          "CR",
          "CY",
          "CZ",
          "DE",
          "DK",
          "DO",
          "DZ",
          "EC",
          "EE",
          "EG",
          "ES",
          "FI",
          "FR",
          "GB",
          "GR",
          "GT",
          "HK",
          "HN",
          "HU",
          "ID",
          "IE",
          "IL",
          "IS",
          "IT",
          "JO",
          "JP",
          "KW",
          "LB",
          "LT",
          "LU",
          "LV",
          "MA",
          "MC",
          "MT",
          "MX",
          "MY",
          "NI",
          "NL",
          "NO",
          "NZ",
          "OM",
          "PA",
          "PE",
          "PH",
          "PL",
          "PT",
          "PY",
          "QA",
          "RO",
          "SA",
          "SE",
          "SG",
          "SK",
          "SV",
          "TH",
          "TN",
          "TR",
          "TW",
          "US",
          "UY",
          "VN",
          "ZA"
        ],
        "disc_number": 1,
        "duration_ms": 180055,
        "explicit": false,
        "external_ids": {
          "isrc": "USAT21402270"
        },
        "external_urls": {
          "spotify": "https://open.spotify.com/track/3SdTKo2uVsxFblQjpScoHy"
        },
        "href": "https://api.spotify.com/v1/tracks/3SdTKo2uVsxFblQjpScoHy",
        "id": "3SdTKo2uVsxFblQjpScoHy",
        "is_local": false,
        "name": "Stand by Me",
        "popularity": 79,
        "preview_url": "https://p.scdn.co/mp3-preview/cdc0401bbc4a03b855d9dd820fdf680917865dba?cid=338aa4458a7043128f41db2791743a77",
        "track_number": 7,
        "type": "track",
        "uri": "spotify:track:3SdTKo2uVsxFblQjpScoHy"
      }
    ],
    "limit": 1,
    "next": "https://api.spotify.com/v1/search?query=Stand+by+me&type=track&offset=1&limit=1",
    "offset": 0,
    "previous": null,
    "total": 4736
  }
}
